	{	"Department":"Department-1",
		"Department-1":[{ "Project":"Project-1",
						  "Project 1":[{"Field":"Field1",
						  				"Field1":[{"item":"Item 1",
												    "totalQuantity":"Some integer value with its parameter(unit)",
												    "consumedQuantity":"The value of the quantity that is consumed",
												    "Rate":"Cost of per capita(unit) of value"},
					   			                   {"item":"Item 2",
												    "totalQuantity":"Some integer value with its parameter(unit)",
												    "consumedQuantity":"The value of the quantity that is consumed",
												    "Rate":"Cost of per capita(unit) of value"},
					                               {"item":"Item 3",
												    "totalQuantity":"Some integer value with its parameter(unit)",
												    "consumedQuantity":"The value of the quantity that is consumed",
												    "Rate":"Cost of per capita(unit) of value"},
					                               {"item":"Item 4",
												    "totalQuantity":"Some integer value with its parameter(unit)",
												    "consumedQuantity":"The value of the quantity that is consumed",
												    "Rate":"Cost of per capita(unit) of value"}
					  			                   ]},
					  			       {"Field":"Field2",
						  				"Field2":[{"item":"Item 1",
												    "totalQuantity":"Some integer value with its parameter(unit)",
												    "consumedQuantity":"The value of the quantity that is consumed",
												    "Rate":"Cost of per capita(unit) of value"},
					   			                   {"item":"Item 2",
												    "totalQuantity":"Some integer value with its parameter(unit)",
												    "consumedQuantity":"The value of the quantity that is consumed",
												    "Rate":"Cost of per capita(unit) of value"},
					                               {"item":"Item 3",
												    "totalQuantity":"Some integer value with its parameter(unit)",
												    "consumedQuantity":"The value of the quantity that is consumed",
												    "Rate":"Cost of per capita(unit) of value"},
					                               {"item":"Item 4",
												    "totalQuantity":"Some integer value with its parameter(unit)",
												    "consumedQuantity":"The value of the quantity that is consumed",
												    "Rate":"Cost of per capita(unit) of value"}
					  			                   ]},
					  			       {"Field":"Field3",
						  				"Field3":[{"item":"Item 1",
												    "totalQuantity":"Some integer value with its parameter(unit)",
												    "consumedQuantity":"The value of the quantity that is consumed",
												    "Rate":"Cost of per capita(unit) of value"},
					   			                   {"item":"Item 2",
												    "totalQuantity":"Some integer value with its parameter(unit)",
												    "consumedQuantity":"The value of the quantity that is consumed",
												    "Rate":"Cost of per capita(unit) of value"},
					                               {"item":"Item 3",
												    "totalQuantity":"Some integer value with its parameter(unit)",
												    "consumedQuantity":"The value of the quantity that is consumed",
												    "Rate":"Cost of per capita(unit) of value"},
					                               {"item":"Item 4",
												    "totalQuantity":"Some integer value with its parameter(unit)",
												    "consumedQuantity":"The value of the quantity that is consumed",
												    "Rate":"Cost of per capita(unit) of value"}
					  			                   ]},
					  			       {"Field":"Field4",
						  				"Field4":[{"item":"Item 1",
												    "totalQuantity":"Some integer value with its parameter(unit)",
												    "consumedQuantity":"The value of the quantity that is consumed",
												    "Rate":"Cost of per capita(unit) of value"},
					   			                   {"item":"Item 2",
												    "totalQuantity":"Some integer value with its parameter(unit)",
												    "consumedQuantity":"The value of the quantity that is consumed",
												    "Rate":"Cost of per capita(unit) of value"},
					                               {"item":"Item 3",
												    "totalQuantity":"Some integer value with its parameter(unit)",
												    "consumedQuantity":"The value of the quantity that is consumed",
												    "Rate":"Cost of per capita(unit) of value"},
					                               {"item":"Item 4",
												    "totalQuantity":"Some integer value with its parameter(unit)",
												    "consumedQuantity":"The value of the quantity that is consumed",
												    "Rate":"Cost of per capita(unit) of value"}
					  			                   ]},
					  			       {"Field":"Field5",
						  				"Field-5":[{"item":"Item 1",
												    "totalQuantity":"Some integer value with its parameter(unit)",
												    "consumedQuantity":"The value of the quantity that is consumed",
												    "Rate":"Cost of per capita(unit) of value"},
					   			                   {"item":"Item 2",
												    "totalQuantity":"Some integer value with its parameter(unit)",
												    "consumedQuantity":"The value of the quantity that is consumed",
												    "Rate":"Cost of per capita(unit) of value"},
					                               {"item":"Item 3",
												    "totalQuantity":"Some integer value with its parameter(unit)",
												    "consumedQuantity":"The value of the quantity that is consumed",
												    "Rate":"Cost of per capita(unit) of value"},
					                               {"item":"Item 4",
												    "totalQuantity":"Some integer value with its parameter(unit)",
												    "consumedQuantity":"The value of the quantity that is consumed",
												    "Rate":"Cost of per capita(unit) of value"}
					  			                   ]}
					  				  
					  	]}


		]}
